Heat-Health Associations across multiple towns using `cityHeatHealth` • cityHeatHealth
…
Finally you can also plot how the RR changes at specific expsoure
units across space – for this you need to bring in an sf
shapefile:

data("ma_towns")
ma_towns
#> Simple feature collection with 351 features and 36 fields
#> Geometry type: MULTIPOLYGON
#> Dimension:     XY
#> Bounding box:  xmin: 33863.75 ymin: 777634.4 xmax: 330838.8 ymax: 959743
#> Projected CRS: NAD83 / Massachusetts Mainland
#> # A tibble: 351 × 37
#>    STATEFP20 COUNTYFP20 COUSUBFP20 COUSUBNS20 GEOID20    NAMELSAD20       LSAD20
#>    <chr>     <chr>      <chr>      <chr>      <chr>      <chr>            <chr> 
#>  1 25        003        34970      00618269   2500334970 Lenox town       43    
#>  2 25        003        44385      00598751   2500344385 New Ashford town 43    
#>  3 25        003        51580      00619422   2500351580 Otis town        43    
#>  4 25        015        29265      00618202   2501529265 Hatfield town    43    
#>  5 25        027        12715      00618359   2502712715 Charlton town    43    
#>  6 25        011        05560      00619378   2501105560 Bernardston town 43    
#>  7 25        003        59665      00619426   2500359665 Sandisfield town 43    
#>  8 25        003        79985      00619430   2500379985 Williamstown to… 43    
#>  9 25        017        31540      00618226   2501731540 Hudson town      43    
#> 10 25        017        37875      00619404   2501737875 Malden city      25    
#> # ℹ 341 more rows
#> # ℹ 30 more variables: CLASSFP20 <chr>, MTFCC20 <chr>, CNECTAFP20 <chr>,
#> #   NECTAFP20 <chr>, NCTADVFP20 <chr>, FUNCSTAT20 <chr>, ALAND20 <dbl>,
#> #   AWATER20 <dbl>, INTPTLAT20 <chr>, INTPTLON20 <chr>, TOWN20 <chr>,
#> #   TOWN_ID <int>, FIPS_STCO2 <dbl>, COUNTY20 <chr>, TYPE <chr>,
#> #   FOURCOLOR <int>, AREA_ACRES <dbl>, SQ_MILES <dbl>, POP1960 <dbl>,
#> #   POP1970 <dbl>, POP1980 <dbl>, POP1990 <dbl>, POP2000 <dbl>, …
…
